%YAML 1.1
%TAG !u! tag:unity3d.com,2011:
--- !u!687078895 &4343727234628468602
SpriteAtlas:
  m_ObjectHideFlags: 0
  m_CorrespondingSourceObject: {fileID: 0}
  m_PrefabInstance: {fileID: 0}
  m_PrefabAsset: {fileID: 0}
  m_Name: Textures
  m_EditorData:
    serializedVersion: 2
    textureSettings:
      serializedVersion: 2
      anisoLevel: 1
      compressionQuality: 50
      maxTextureSize: 2048
      textureCompression: 0
      filterMode: 1
      generateMipMaps: 0
      readable: 0
      crunchedCompression: 0
      sRGB: 1
    platformSettings: []
    packingSettings:
      serializedVersion: 2
      padding: 4
      blockOffset: 1
      allowAlphaSplitting: 0
      enableRotation: 1
      enableTightPacking: 1
    variantMultiplier: 1
    packables:
    - {fileID: 2800000, guid: 3e82f0c0243e6f34db808c90b114830e, type: 3}
    - {fileID: 2800000, guid: f1e4993b659a9ff4aa048399a8901903, type: 3}
    - {fileID: 2800000, guid: 2088be404fb281a499ca3a37af22da51, type: 3}
    - {fileID: 21300000, guid: 9f8dd9ff0978a794a9afc8e70b3392dd, type: 3}
    totalSpriteSurfaceArea: 2651312
    bindAsDefault: 1
    isAtlasV2: 0
    cachedData: {fileID: 0}
  m_MasterAtlas: {fileID: 0}
  m_PackedSprites:
  - {fileID: 21300000, guid: 2088be404fb281a499ca3a37af22da51, type: 3}
  - {fileID: 21300000, guid: 3e82f0c0243e6f34db808c90b114830e, type: 3}
  - {fileID: 21300000, guid: f1e4993b659a9ff4aa048399a8901903, type: 3}
  - {fileID: 21300000, guid: 9f8dd9ff0978a794a9afc8e70b3392dd, type: 3}
  m_PackedSpriteNamesToIndex:
  - level_without_markup
  - bomb
  - pig
  - stone
  m_Tag: Textures
  m_IsVariant: 0
